{
  "projectType": "application",
  "sourceRoot": "apps/client/dashboard/src",
  "prefix": "adopet",
  "targets": {
    "build": {
      "executor": "@nrwl/angular:webpack-browser",
      "outputs": ["{options.outputPath}"],
      "options": {
        "outputPath": "dist/apps/client/dashboard",
        "index": "apps/client/dashboard/src/index.html",
        "main": "apps/client/dashboard/src/main.ts",
        "polyfills": "apps/client/dashboard/src/polyfills.ts",
        "tsConfig": "apps/client/dashboard/tsconfig.app.json",
        "inlineStyleLanguage": "scss",
        "assets": ["apps/client/dashboard/src/favicon.ico", "apps/client/dashboard/src/assets"],
        "styles": ["apps/client/dashboard/src/styles.scss"],
        "scripts": [],
        "customWebpackConfig": {
          "path": "apps/client/dashboard/webpack.config.js"
        }
      },
      "configurations": {
        "production": {
          "budgets": [
            {
              "type": "initial",
              "maximumWarning": "500kb",
              "maximumError": "1mb"
            },
            {
              "type": "anyComponentStyle",
              "maximumWarning": "2kb",
              "maximumError": "4kb"
            }
          ],
          "fileReplacements": [
            {
              "replace": "apps/client/dashboard/src/environments/environment.ts",
              "with": "apps/client/dashboard/src/environments/environment.prod.ts"
            }
          ],
          "outputHashing": "all",
          "customWebpackConfig": {
            "path": "apps/client/dashboard/webpack.prod.config.js"
          }
        },
        "development": {
          "buildOptimizer": false,
          "optimization": false,
          "vendorChunk": true,
          "extractLicenses": false,
          "sourceMap": true,
          "namedChunks": true
        }
      },
      "defaultConfiguration": "production"
    },
    "serve": {
      "executor": "@nrwl/angular:webpack-server",
      "configurations": {
        "production": {
          "browserTarget": "client-dashboard:build:production"
        },
        "development": {
          "browserTarget": "client-dashboard:build:development"
        }
      },
      "defaultConfiguration": "development",
      "options": {
        "port": 4202,
        "publicHost": "http://localhost:4202"
      }
    },
    "extract-i18n": {
      "executor": "@angular-devkit/build-angular:extract-i18n",
      "options": {
        "browserTarget": "client-dashboard:build"
      }
    },
    "lint": {
      "executor": "@nrwl/linter:eslint",
      "options": {
        "lintFilePatterns": ["apps/client/dashboard/**/*.ts", "apps/client/dashboard/**/*.html"]
      }
    },
    "test": {
      "executor": "@nrwl/jest:jest",
      "outputs": ["coverage/apps/client/dashboard"],
      "options": {
        "jestConfig": "apps/client/dashboard/jest.config.ts",
        "passWithNoTests": true
      }
    },
    "serve-static": {
      "executor": "@nrwl/angular:file-server",
      "defaultConfiguration": "development",
      "options": {
        "buildTarget": "client-dashboard:build",
        "port": 4202
      },
      "configurations": {
        "development": {
          "buildTarget": "client-dashboard:build:development"
        },
        "production": {
          "buildTarget": "client-dashboard:build:production"
        }
      }
    }
  },
  "tags": []
}
